SRA/SRA/simulation/qsim/SRA.msim.vcd
$comment
	File created using the following command:
		vcd file SRA.msim.vcd -direction
$end
$date
	Tue Nov 12 01:45:17 2024
$end
$version
	ModelSim Version 10.1d
$end
$timescale
	1ps
$end
$scope module SRA_MR_vlg_vec_tst $end
$var reg 16 ! A [15:0] $end
$var reg 16 " B [15:0] $end
$var reg 1 # CLK $end
$var reg 1 $ RST $end
$var reg 1 % START $end
$var wire 1 & DONE $end
$var wire 1 ' OUTPU [15] $end
$var wire 1 ( OUTPU [14] $end
$var wire 1 ) OUTPU [13] $end
$var wire 1 * OUTPU [12] $end
$var wire 1 + OUTPU [11] $end
$var wire 1 , OUTPU [10] $end
$var wire 1 - OUTPU [9] $end
$var wire 1 . OUTPU [8] $end
$var wire 1 / OUTPU [7] $end
$var wire 1 0 OUTPU [6] $end
$var wire 1 1 OUTPU [5] $end
$var wire 1 2 OUTPU [4] $end
$var wire 1 3 OUTPU [3] $end
$var wire 1 4 OUTPU [2] $end
$var wire 1 5 OUTPU [1] $end
$var wire 1 6 OUTPU [0] $end
$var wire 1 7 sampler $end
$scope module i1 $end
$var wire 1 8 gnd $end
$var wire 1 9 vcc $end
$var wire 1 : unknown $end
$var tri1 1 ; devclrn $end
$var tri1 1 < devpor $end
$var tri1 1 = devoe $end
$var wire 1 > inst2|inst3[3]~20_combout $end
$var wire 1 ? inst2|inst5|in1st|inst30|inst4~0_combout $end
$var wire 1 @ inst2|inst7[3]~70_combout $end
$var wire 1 A inst2|inst7[0]~84_combout $end
$var wire 1 B inst2|inst8[1]~76_combout $end
$var wire 1 C inst2|inst8[0]~80_combout $end
$var wire 1 D inst2|inst8[3]~91_combout $end
$var wire 1 E inst2|inst8[3]~92_combout $end
$var wire 1 F inst2|inst8[4]~100_combout $end
$var wire 1 G inst2|inst8[7]~114_combout $end
$var wire 1 H inst2|inst8[7]~115_combout $end
$var wire 1 I inst2|inst8[7]~116_combout $end
$var wire 1 J inst2|inst8[7]~117_combout $end
$var wire 1 K inst2|inst8[7]~118_combout $end
$var wire 1 L inst2|inst8[7]~119_combout $end
$var wire 1 M inst2|inst8[8]~120_combout $end
$var wire 1 N inst2|inst8[8]~121_combout $end
$var wire 1 O inst2|inst8[8]~122_combout $end
$var wire 1 P inst2|inst8[8]~123_combout $end
$var wire 1 Q inst2|inst8[8]~124_combout $end
$var wire 1 R inst2|inst8[8]~125_combout $end
$var wire 1 S inst2|inst8[9]~127_combout $end
$var wire 1 T inst2|inst8[9]~128_combout $end
$var wire 1 U inst2|inst8[10]~136_combout $end
$var wire 1 V inst2|inst6|in1st|inst24|inst4~combout $end
$var wire 1 W inst2|inst6|in1st|inst26|inst4~combout $end
$var wire 1 X inst2|BUS4[15]~18_combout $end
$var wire 1 Y inst2|inst7[6]~94_combout $end
$var wire 1 Z inst2|inst7[2]~98_combout $end
$var wire 1 [ inst2|BUS4[13]~23_combout $end
$var wire 1 \ inst2|inst8[2]~151_combout $end
$var wire 1 ] inst2|inst8[3]~152_combout $end
$var wire 1 ^ inst2|inst8[5]~154_combout $end
$var wire 1 _ inst2|inst8[6]~155_combout $end
$var wire 1 ` inst2|inst8[7]~156_combout $end
$var wire 1 a inst2|inst8[8]~157_combout $end
$var wire 1 b inst2|inst8[9]~158_combout $end
$var wire 1 c inst2|inst8[11]~160_combout $end
$var wire 1 d inst2|inst8[12]~161_combout $end
$var wire 1 e inst2|BUS4[15]~25_combout $end
$var wire 1 f CLK~combout $end
$var wire 1 g CLK~clkctrl_outclk $end
$var wire 1 h inst2|inst|inst2|inst[7]~feeder_combout $end
$var wire 1 i START~combout $end
$var wire 1 j inst|inst1|inst13~0_combout $end
$var wire 1 k RST~combout $end
$var wire 1 l RST~clkctrl_outclk $end
$var wire 1 m inst|inst2[1]~0_combout $end
$var wire 1 n inst|inst1|inst6~0_combout $end
$var wire 1 o inst|inst|inst9~combout $end
$var wire 1 p inst2|inst3[15]~16_combout $end
$var wire 1 q inst|inst|inst23~0_combout $end
$var wire 1 r inst2|BUS4[14]~24_combout $end
$var wire 1 s inst2|inst4[14]~15_combout $end
$var wire 1 t inst2|inst4[15]~13_combout $end
$var wire 1 u inst2|inst6|in1st|inst30|inst4~0_combout $end
$var wire 1 v inst|inst|in1st3~2_combout $end
$var wire 1 w inst2|BUS4[13]~10_combout $end
$var wire 1 x inst2|inst8[1]~148_combout $end
$var wire 1 y inst2|BUS4[13]~12_combout $end
$var wire 1 z inst2|inst8[0]~79_combout $end
$var wire 1 { inst2|BUS4[13]~11_combout $end
$var wire 1 | inst2|BUS4[13]~13_combout $end
$var wire 1 } inst|inst|inst7~combout $end
$var wire 1 ~ inst2|inst4[13]~12_combout $end
$var wire 1 !! inst2|inst7[14]~29_combout $end
$var wire 1 "! inst2|inst4[15]~14_combout $end
$var wire 1 #! inst2|inst8[12]~144_combout $end
$var wire 1 $! inst2|inst4[12]~11_combout $end
$var wire 1 %! inst2|inst8[12]~146_combout $end
$var wire 1 &! inst2|inst6|inst42~4_combout $end
$var wire 1 '! inst2|inst6|inst42~combout $end
$var wire 1 (! inst2|inst7[12]~88_combout $end
$var wire 1 )! inst|inst|inst27~combout $end
$var wire 1 *! inst2|BUS4[15]~20_combout $end
$var wire 1 +! inst|inst|in1st3~3_combout $end
$var wire 1 ,! inst2|BUS4[15]~21_combout $end
$var wire 1 -! inst2|BUS4[15]~19_combout $end
$var wire 1 .! inst2|BUS4[15]~22_combout $end
$var wire 1 /! inst2|inst7[14]~24_combout $end
$var wire 1 0! inst2|inst7[14]~25_combout $end
$var wire 1 1! inst2|inst7[13]~87_combout $end
$var wire 1 2! inst2|inst|inst|inst2~0_combout $end
$var wire 1 3! inst2|inst|in1st|$00000|auto_generated|result_node[13]~2_combout $end
$var wire 1 4! inst|inst|in1st3~1_combout $end
$var wire 1 5! inst2|inst3[11]~28_combout $end
$var wire 1 6! inst2|inst4[11]~10_combout $end
$var wire 1 7! inst2|inst|in1st|$00000|auto_generated|result_node[14]~1_combout $end
$var wire 1 8! inst2|inst8[11]~138_combout $end
$var wire 1 9! inst2|inst8[11]~142_combout $end
$var wire 1 :! inst2|inst8[10]~132_combout $end
$var wire 1 ;! inst2|inst8[10]~159_combout $end
$var wire 1 <! inst2|inst4[10]~9_combout $end
$var wire 1 =! inst2|inst8[10]~133_combout $end
$var wire 1 >! inst2|inst8[10]~134_combout $end
$var wire 1 ?! inst2|inst8[10]~135_combout $end
$var wire 1 @! inst2|inst8[10]~137_combout $end
$var wire 1 A! inst2|inst7[9]~91_combout $end
$var wire 1 B! inst2|inst8[9]~126_combout $end
$var wire 1 C! inst2|inst8[9]~130_combout $end
$var wire 1 D! inst2|inst8[9]~129_combout $end
$var wire 1 E! inst2|inst8[9]~131_combout $end
$var wire 1 F! inst2|inst4[9]~8_combout $end
$var wire 1 G! inst2|inst3[9]~26_combout $end
$var wire 1 H! inst2|inst4[8]~7_combout $end
$var wire 1 I! inst2|inst7[8]~92_combout $end
$var wire 1 J! inst2|inst|in1st|$00000|auto_generated|result_node[8]~7_combout $end
$var wire 1 K! inst2|inst4[7]~6_combout $end
$var wire 1 L! inst2|inst8[6]~108_combout $end
$var wire 1 M! inst2|inst8[6]~112_combout $end
$var wire 1 N! inst2|inst|in1st|$00000|auto_generated|result_node[6]~9_combout $end
$var wire 1 O! inst2|inst7[5]~95_combout $end
$var wire 1 P! inst2|inst8[4]~153_combout $end
$var wire 1 Q! inst2|inst7[7]~93_combout $end
$var wire 1 R! inst2|inst7[7]~54_combout $end
$var wire 1 S! inst2|inst7[7]~55_combout $end
$var wire 1 T! inst2|inst7[7]~56_combout $end
$var wire 1 U! inst2|inst7[7]~57_combout $end
$var wire 1 V! inst2|inst|inst1|inst[7]~feeder_combout $end
$var wire 1 W! inst2|inst|in1st|$00000|auto_generated|result_node[7]~8_combout $end
$var wire 1 X! inst2|inst8[4]~96_combout $end
$var wire 1 Y! inst2|inst8[3]~90_combout $end
$var wire 1 Z! inst2|inst8[3]~94_combout $end
$var wire 1 [! inst2|inst8[3]~93_combout $end
$var wire 1 \! inst2|inst8[3]~95_combout $end
$var wire 1 ]! inst2|inst4[3]~2_combout $end
$var wire 1 ^! inst2|inst8[2]~84_combout $end
$var wire 1 _! inst2|inst8[2]~88_combout $end
$var wire 1 `! inst2|inst|in1st|$00000|auto_generated|result_node[2]~13_combout $end
$var wire 1 a! inst2|inst8[1]~72_combout $end
$var wire 1 b! inst2|inst8[1]~150_combout $end
$var wire 1 c! inst2|inst6|in1st|inst|inst6~0_combout $end
$var wire 1 d! inst2|inst7[1]~78_combout $end
$var wire 1 e! inst2|inst4[1]~0_combout $end
$var wire 1 f! inst2|inst7[1]~79_combout $end
$var wire 1 g! inst2|inst7[1]~80_combout $end
$var wire 1 h! inst2|inst7[1]~81_combout $end
$var wire 1 i! inst2|inst3[1]~17_combout $end
$var wire 1 j! inst2|inst8[1]~73_combout $end
$var wire 1 k! inst2|inst8[1]~74_combout $end
$var wire 1 l! inst2|inst8[1]~75_combout $end
$var wire 1 m! inst2|inst8[1]~77_combout $end
$var wire 1 n! inst2|inst7[0]~82_combout $end
$var wire 1 o! inst2|inst7[0]~83_combout $end
$var wire 1 p! inst2|inst7[0]~85_combout $end
$var wire 1 q! inst2|inst7[0]~86_combout $end
$var wire 1 r! inst2|inst3[0]~18_combout $end
$var wire 1 s! inst2|inst7[3]~97_combout $end
$var wire 1 t! inst2|inst7[3]~71_combout $end
$var wire 1 u! inst2|inst7[3]~72_combout $end
$var wire 1 v! inst2|inst7[3]~73_combout $end
$var wire 1 w! inst2|inst|in1st|$00000|auto_generated|result_node[3]~12_combout $end
$var wire 1 x! inst2|inst8[0]~78_combout $end
$var wire 1 y! inst2|inst8[0]~81_combout $end
$var wire 1 z! inst2|inst8[0]~82_combout $end
$var wire 1 {! inst2|inst8[0]~83_combout $end
$var wire 1 |! inst2|inst5|in1st|inst2|inst6~0_combout $end
$var wire 1 }! inst2|inst5|in1st|inst2|inst6~1_combout $end
$var wire 1 ~! inst2|inst7[2]~74_combout $end
$var wire 1 !" inst2|inst7[2]~75_combout $end
$var wire 1 "" inst2|inst7[2]~76_combout $end
$var wire 1 #" inst2|inst7[2]~77_combout $end
$var wire 1 $" inst2|inst3[2]~19_combout $end
$var wire 1 %" inst2|inst6|in1st|inst2|inst6~0_combout $end
$var wire 1 &" inst2|inst8[2]~85_combout $end
$var wire 1 '" inst2|inst8[2]~86_combout $end
$var wire 1 (" inst2|inst8[2]~87_combout $end
$var wire 1 )" inst2|inst8[2]~89_combout $end
$var wire 1 *" inst2|inst4[2]~1_combout $end
$var wire 1 +" inst2|inst6|in1st|inst4|inst6~0_combout $end
$var wire 1 ," inst2|inst6|in1st|inst6|inst6~0_combout $end
$var wire 1 -" inst2|inst8[4]~97_combout $end
$var wire 1 ." inst2|inst8[4]~98_combout $end
$var wire 1 /" inst2|inst8[4]~99_combout $end
$var wire 1 0" inst2|inst8[4]~101_combout $end
$var wire 1 1" inst2|inst4[4]~3_combout $end
$var wire 1 2" inst2|inst4[5]~4_combout $end
$var wire 1 3" inst2|inst8[5]~106_combout $end
$var wire 1 4" inst2|inst8[5]~102_combout $end
$var wire 1 5" inst2|inst|in1st|$00000|auto_generated|result_node[4]~11_combout $end
$var wire 1 6" inst2|inst6|in1st|inst8|inst6~0_combout $end
$var wire 1 7" inst2|inst8[5]~103_combout $end
$var wire 1 8" inst2|inst8[5]~104_combout $end
$var wire 1 9" inst2|inst8[5]~105_combout $end
$var wire 1 :" inst2|inst8[5]~107_combout $end
$var wire 1 ;" inst2|inst7[4]~96_combout $end
$var wire 1 <" inst2|inst5|in1st|inst4|inst6~0_combout $end
$var wire 1 =" inst2|inst5|in1st|inst6|inst6~0_combout $end
$var wire 1 >" inst2|inst7[4]~66_combout $end
$var wire 1 ?" inst2|inst7[4]~67_combout $end
$var wire 1 @" inst2|inst7[4]~68_combout $end
$var wire 1 A" inst2|inst7[4]~69_combout $end
$var wire 1 B" inst2|inst3[4]~21_combout $end
$var wire 1 C" inst2|inst5|in1st|inst8|inst6~0_combout $end
$var wire 1 D" inst2|inst7[5]~62_combout $end
$var wire 1 E" inst2|inst7[5]~63_combout $end
$var wire 1 F" inst2|inst7[5]~64_combout $end
$var wire 1 G" inst2|inst7[5]~65_combout $end
$var wire 1 H" inst2|inst|in1st|$00000|auto_generated|result_node[5]~10_combout $end
$var wire 1 I" inst2|inst6|in1st|inst10|inst6~0_combout $end
$var wire 1 J" inst2|inst8[6]~109_combout $end
$var wire 1 K" inst2|inst8[6]~110_combout $end
$var wire 1 L" inst2|inst8[6]~111_combout $end
$var wire 1 M" inst2|inst8[6]~113_combout $end
$var wire 1 N" inst2|inst4[6]~5_combout $end
$var wire 1 O" inst2|inst3[5]~22_combout $end
$var wire 1 P" inst2|inst5|in1st|inst10|inst6~0_combout $end
$var wire 1 Q" inst2|inst7[6]~58_combout $end
$var wire 1 R" inst2|inst7[6]~59_combout $end
$var wire 1 S" inst2|inst7[6]~60_combout $end
$var wire 1 T" inst2|inst7[6]~61_combout $end
$var wire 1 U" inst2|inst3[6]~23_combout $end
$var wire 1 V" inst2|inst5|in1st|inst12|inst6~0_combout $end
$var wire 1 W" inst2|inst3[7]~24_combout $end
$var wire 1 X" inst2|inst5|in1st|inst14|inst6~0_combout $end
$var wire 1 Y" inst2|inst7[8]~50_combout $end
$var wire 1 Z" inst2|inst7[8]~51_combout $end
$var wire 1 [" inst2|inst7[8]~52_combout $end
$var wire 1 \" inst2|inst7[8]~53_combout $end
$var wire 1 ]" inst2|inst3[8]~25_combout $end
$var wire 1 ^" inst2|inst5|in1st|inst16|inst6~0_combout $end
$var wire 1 _" inst2|inst7[9]~46_combout $end
$var wire 1 `" inst2|inst7[9]~47_combout $end
$var wire 1 a" inst2|inst7[9]~48_combout $end
$var wire 1 b" inst2|inst7[9]~49_combout $end
$var wire 1 c" inst2|inst|in1st|$00000|auto_generated|result_node[9]~6_combout $end
$var wire 1 d" inst2|inst6|in1st|inst12|inst6~0_combout $end
$var wire 1 e" inst2|inst6|in1st|inst14|inst6~0_combout $end
$var wire 1 f" inst2|inst6|in1st|inst16|inst6~0_combout $end
$var wire 1 g" inst2|inst6|in1st|inst18|inst6~0_combout $end
$var wire 1 h" inst2|inst6|in1st|inst20|inst6~0_combout $end
$var wire 1 i" inst2|inst8[11]~139_combout $end
$var wire 1 j" inst2|inst8[11]~140_combout $end
$var wire 1 k" inst2|inst8[11]~141_combout $end
$var wire 1 l" inst2|inst8[11]~143_combout $end
$var wire 1 m" inst2|inst7[10]~90_combout $end
$var wire 1 n" inst2|inst|in1st|$00000|auto_generated|result_node[10]~5_combout $end
$var wire 1 o" inst2|inst5|in1st|inst18|inst6~0_combout $end
$var wire 1 p" inst2|inst7[10]~42_combout $end
$var wire 1 q" inst2|inst7[10]~43_combout $end
$var wire 1 r" inst2|inst7[10]~44_combout $end
$var wire 1 s" inst2|inst7[10]~45_combout $end
$var wire 1 t" inst2|inst3[10]~27_combout $end
$var wire 1 u" inst2|inst5|in1st|inst20|inst6~0_combout $end
$var wire 1 v" inst2|inst5|in1st|inst22|inst6~0_combout $end
$var wire 1 w" inst2|inst5|in1st|inst24|inst6~0_combout $end
$var wire 1 x" inst2|inst7[13]~30_combout $end
$var wire 1 y" inst2|inst7[13]~31_combout $end
$var wire 1 z" inst2|inst7[13]~32_combout $end
$var wire 1 {" inst2|inst7[13]~33_combout $end
$var wire 1 |" inst2|inst3[13]~30_combout $end
$var wire 1 }" inst2|inst5|in1st|inst26|inst6~0_combout $end
$var wire 1 ~" inst2|inst7[14]~26_combout $end
$var wire 1 !# inst2|inst7[14]~27_combout $end
$var wire 1 "# inst2|inst7[14]~28_combout $end
$var wire 1 ## inst2|inst3[14]~31_combout $end
$var wire 1 $# inst2|inst5|in1st|inst30|inst4~combout $end
$var wire 1 %# inst2|inst7[12]~34_combout $end
$var wire 1 &# inst2|inst7[12]~35_combout $end
$var wire 1 '# inst2|inst7[12]~36_combout $end
$var wire 1 (# inst2|inst7[12]~37_combout $end
$var wire 1 )# inst2|inst3[12]~29_combout $end
$var wire 1 *# inst2|inst8[12]~149_combout $end
$var wire 1 +# inst2|inst8[12]~145_combout $end
$var wire 1 ,# inst2|inst8[12]~147_combout $end
$var wire 1 -# inst2|inst7[11]~89_combout $end
$var wire 1 .# inst2|inst7[11]~38_combout $end
$var wire 1 /# inst2|inst7[11]~39_combout $end
$var wire 1 0# inst2|inst7[11]~40_combout $end
$var wire 1 1# inst2|inst7[11]~41_combout $end
$var wire 1 2# inst2|inst|in1st|$00000|auto_generated|result_node[11]~4_combout $end
$var wire 1 3# inst2|inst6|in1st|inst22|inst6~0_combout $end
$var wire 1 4# inst2|inst6|in1st|inst24|inst6~0_combout $end
$var wire 1 5# inst2|inst6|in1st|inst26|inst6~0_combout $end
$var wire 1 6# inst2|inst6|in1st|inst28|inst6~0_combout $end
$var wire 1 7# inst2|inst6|inst41~combout $end
$var wire 1 8# inst2|BUS4[14]~14_combout $end
$var wire 1 9# inst2|BUS4[14]~15_combout $end
$var wire 1 :# inst2|BUS4[14]~16_combout $end
$var wire 1 ;# inst2|BUS4[14]~17_combout $end
$var wire 1 <# inst2|inst5|in1st|inst28|inst6~0_combout $end
$var wire 1 =# inst2|inst5|in1st|inst28|inst6~1_combout $end
$var wire 1 ># inst2|BUS3[15]~0_combout $end
$var wire 1 ?# inst2|BUS3[15]~1_combout $end
$var wire 1 @# inst2|inst|in1st|$00000|auto_generated|result_node[15]~0_combout $end
$var wire 1 A# inst2|inst|in1st|$00000|auto_generated|result_node[12]~3_combout $end
$var wire 1 B# inst2|inst|in1st|$00000|auto_generated|result_node[1]~14_combout $end
$var wire 1 C# inst2|inst|in1st|$00000|auto_generated|result_node[0]~15_combout $end
$var wire 1 D# inst|inst|in1st3~0_combout $end
$var wire 1 E# inst2|inst|inst2|inst [15] $end
$var wire 1 F# inst2|inst|inst2|inst [14] $end
$var wire 1 G# inst2|inst|inst2|inst [13] $end
$var wire 1 H# inst2|inst|inst2|inst [12] $end
$var wire 1 I# inst2|inst|inst2|inst [11] $end
$var wire 1 J# inst2|inst|inst2|inst [10] $end
$var wire 1 K# inst2|inst|inst2|inst [9] $end
$var wire 1 L# inst2|inst|inst2|inst [8] $end
$var wire 1 M# inst2|inst|inst2|inst [7] $end
$var wire 1 N# inst2|inst|inst2|inst [6] $end
$var wire 1 O# inst2|inst|inst2|inst [5] $end
$var wire 1 P# inst2|inst|inst2|inst [4] $end
$var wire 1 Q# inst2|inst|inst2|inst [3] $end
$var wire 1 R# inst2|inst|inst2|inst [2] $end
$var wire 1 S# inst2|inst|inst2|inst [1] $end
$var wire 1 T# inst2|inst|inst2|inst [0] $end
$var wire 1 U# inst2|inst1|inst [15] $end
$var wire 1 V# inst2|inst1|inst [14] $end
$var wire 1 W# inst2|inst1|inst [13] $end
$var wire 1 X# inst2|inst1|inst [12] $end
$var wire 1 Y# inst2|inst1|inst [11] $end
$var wire 1 Z# inst2|inst1|inst [10] $end
$var wire 1 [# inst2|inst1|inst [9] $end
$var wire 1 \# inst2|inst1|inst [8] $end
$var wire 1 ]# inst2|inst1|inst [7] $end
$var wire 1 ^# inst2|inst1|inst [6] $end
$var wire 1 _# inst2|inst1|inst [5] $end
$var wire 1 `# inst2|inst1|inst [4] $end
$var wire 1 a# inst2|inst1|inst [3] $end
$var wire 1 b# inst2|inst1|inst [2] $end
$var wire 1 c# inst2|inst1|inst [1] $end
$var wire 1 d# inst2|inst1|inst [0] $end
$var wire 1 e# inst|inst2 [2] $end
$var wire 1 f# inst|inst2 [1] $end
$var wire 1 g# inst|inst2 [0] $end
$var wire 1 h# inst2|inst|inst1|inst [15] $end
$var wire 1 i# inst2|inst|inst1|inst [14] $end
$var wire 1 j# inst2|inst|inst1|inst [13] $end
$var wire 1 k# inst2|inst|inst1|inst [12] $end
$var wire 1 l# inst2|inst|inst1|inst [11] $end
$var wire 1 m# inst2|inst|inst1|inst [10] $end
$var wire 1 n# inst2|inst|inst1|inst [9] $end
$var wire 1 o# inst2|inst|inst1|inst [8] $end
$var wire 1 p# inst2|inst|inst1|inst [7] $end
$var wire 1 q# inst2|inst|inst1|inst [6] $end
$var wire 1 r# inst2|inst|inst1|inst [5] $end
$var wire 1 s# inst2|inst|inst1|inst [4] $end
$var wire 1 t# inst2|inst|inst1|inst [3] $end
$var wire 1 u# inst2|inst|inst1|inst [2] $end
$var wire 1 v# inst2|inst|inst1|inst [1] $end
$var wire 1 w# inst2|inst|inst1|inst [0] $end
$var wire 1 x# inst2|inst6|inst33 [15] $end
$var wire 1 y# inst2|inst6|inst33 [14] $end
$var wire 1 z# inst2|inst6|inst33 [13] $end
$var wire 1 {# inst2|inst6|inst33 [12] $end
$var wire 1 |# inst2|inst6|inst33 [11] $end
$var wire 1 }# inst2|inst6|inst33 [10] $end
$var wire 1 ~# inst2|inst6|inst33 [9] $end
$var wire 1 !$ inst2|inst6|inst33 [8] $end
$var wire 1 "$ inst2|inst6|inst33 [7] $end
$var wire 1 #$ inst2|inst6|inst33 [6] $end
$var wire 1 $$ inst2|inst6|inst33 [5] $end
$var wire 1 %$ inst2|inst6|inst33 [4] $end
$var wire 1 &$ inst2|inst6|inst33 [3] $end
$var wire 1 '$ inst2|inst6|inst33 [2] $end
$var wire 1 ($ inst2|inst6|inst33 [1] $end
$var wire 1 )$ inst2|inst6|inst33 [0] $end
$var wire 1 *$ B~combout [15] $end
$var wire 1 +$ B~combout [14] $end
$var wire 1 ,$ B~combout [13] $end
$var wire 1 -$ B~combout [12] $end
$var wire 1 .$ B~combout [11] $end
$var wire 1 /$ B~combout [10] $end
$var wire 1 0$ B~combout [9] $end
$var wire 1 1$ B~combout [8] $end
$var wire 1 2$ B~combout [7] $end
$var wire 1 3$ B~combout [6] $end
$var wire 1 4$ B~combout [5] $end
$var wire 1 5$ B~combout [4] $end
$var wire 1 6$ B~combout [3] $end
$var wire 1 7$ B~combout [2] $end
$var wire 1 8$ B~combout [1] $end
$var wire 1 9$ B~combout [0] $end
$var wire 1 :$ A~combout [15] $end
$var wire 1 ;$ A~combout [14] $end
$var wire 1 <$ A~combout [13] $end
$var wire 1 =$ A~combout [12] $end
$var wire 1 >$ A~combout [11] $end
$var wire 1 ?$ A~combout [10] $end
$var wire 1 @$ A~combout [9] $end
$var wire 1 A$ A~combout [8] $end
$var wire 1 B$ A~combout [7] $end
$var wire 1 C$ A~combout [6] $end
$var wire 1 D$ A~combout [5] $end
$var wire 1 E$ A~combout [4] $end
$var wire 1 F$ A~combout [3] $end
$var wire 1 G$ A~combout [2] $end
$var wire 1 H$ A~combout [1] $end
$var wire 1 I$ A~combout [0] $end
$upscope $end
$upscope $end
$enddefinitions $end
#0
$dumpvars
b110 !
b1000 "
0#
1$
0%
0&
z6
z5
z4
z3
z2
z1
z0
z/
z.
z-
z,
z+
z*
z)
z(
z'
x7
08
19
x:
1;
1<
1=
1>
0?
1@
0A
0B
1C
0D
1E
0F
0G
0H
0I
0J
0K
0L
0M
0N
0O
0P
0Q
0R
0S
0T
0U
1V
1W
0X
0Y
0Z
1[
0\
1]
0^
0_
0`
0a
0b
0c
0d
0e
0f
0g
0h
0i
0j
1k
1l
0m
0n
0o
1p
0q
0r
1s
1t
1u
0v
0w
0x
0y
0z
0{
0|
1}
1~
1!!
0"!
0#!
1$!
0%!
0&!
0'!
0(!
0)!
0*!
1+!
1,!
0-!
0.!
0/!
00!
01!
12!
03!
04!
15!
16!
07!
08!
09!
0:!
0;!
1<!
0=!
0>!
0?!
0@!
0A!
0B!
0C!
0D!
0E!
1F!
1G!
1H!
0I!
0J!
1K!
0L!
0M!
0N!
0O!
0P!
0Q!
1R!
0S!
0T!
0U!
0V!
0W!
0X!
1Y!
1Z!
0[!
1\!
1]!
0^!
0_!
0`!
0a!
0b!
1c!
1d!
1e!
1f!
1g!
1h!
1i!
0j!
0k!
0l!
0m!
0n!
0o!
0p!
0q!
1r!
0s!
0t!
0u!
0v!
0w!
0x!
0y!
0z!
0{!
1|!
0}!
1~!
0!"
1""
1#"
1$"
1%"
0&"
0'"
0("
0)"
1*"
1+"
1,"
0-"
0."
0/"
00"
11"
12"
03"
04"
05"
16"
07"
08"
09"
0:"
0;"
0<"
0="
1>"
0?"
0@"
0A"
1B"
0C"
1D"
0E"
0F"
0G"
0H"
1I"
0J"
0K"
0L"
0M"
1N"
1O"
0P"
1Q"
0R"
0S"
0T"
1U"
0V"
1W"
0X"
1Y"
0Z"
0["
0\"
1]"
0^"
1_"
0`"
0a"
0b"
0c"
1d"
1e"
1f"
1g"
1h"
0i"
0j"
0k"
0l"
0m"
0n"
0o"
1p"
0q"
0r"
0s"
1t"
0u"
0v"
0w"
1x"
0y"
0z"
0{"
1|"
0}"
1~"
0!#
0"#
1##
0$#
1%#
0&#
0'#
0(#
1)#
1*#
0+#
0,#
0-#
1.#
0/#
00#
01#
02#
13#
14#
15#
16#
17#
18#
09#
0:#
0;#
1<#
0=#
1>#
0?#
0@#
0A#
0B#
0C#
0D#
0T#
0S#
0R#
0Q#
0P#
0O#
0N#
0M#
0L#
0K#
0J#
0I#
0H#
0G#
0F#
zE#
0d#
0c#
0b#
0a#
0`#
0_#
0^#
0]#
0\#
0[#
0Z#
0Y#
0X#
0W#
0V#
0U#
0g#
0f#
0e#
0w#
0v#
0u#
0t#
0s#
0r#
0q#
0p#
0o#
0n#
0m#
0l#
0k#
0j#
0i#
0h#
z)$
1($
1'$
1&$
1%$
1$$
1#$
1"$
1!$
1~#
1}#
1|#
1{#
1z#
1y#
zx#
09$
08$
07$
16$
05$
04$
03$
02$
01$
00$
0/$
0.$
0-$
0,$
0+$
0*$
0I$
1H$
1G$
0F$
0E$
0D$
0C$
0B$
0A$
0@$
0?$
0>$
0=$
0<$
0;$
0:$
$end
#30000
1#
1f
1g
07
1u#
1v#
1a#
1`!
1B#
#60000
0#
0f
0g
17
#80000
1%
1i
07
1j
#90000
1#
1f
1g
17
1g#
0>#
0<#
0y#
0|#
0.#
0*#
0%#
0x"
0p"
0"$
0~#
0_"
0Y"
0Q"
0N"
0$$
0D"
0>"
0%$
02"
01"
0'$
0*"
0~!
0($
0e!
0R!
0#$
0K!
0H!
0F!
0<!
06!
0+!
1)!
0$!
0~
1x
0u
0t
0s
1q
0p
1o
1m
0j
0]
0[
0&$
0!$
0}#
0{#
0z#
0C
0@
1?
1$#
0~"
08#
1/#
1&#
1y"
1q"
1`"
1Z"
1R"
1E"
1?"
1S!
07#
0,!
1z
0E
10#
0)#
1'#
0##
0|"
1z"
0t"
1r"
1a"
0]"
1["
0W"
0U"
1S"
0O"
1F"
0B"
1@"
14"
1x!
1u!
0r!
1n!
1a!
1^!
1X!
1T!
1L!
0G!
1B!
1:!
18!
05!
1/!
1#!
1M
1G
0?
0>
1[!
1y
1'!
1:#
1;#
1z!
1t!
0,"
1D
06
15
14
03
02
01
00
0/
0.
0-
0,
0+
0*
0)
0(
0'
00#
0'#
0z"
0r"
0a"
0["
0S"
0F"
0@"
1!"
0u!
0g!
0T!
19#
0:#
0[!
11#
1%#
1(#
0$#
1~"
1x"
1{"
1p"
1s"
1b"
1Y"
1\"
1R!
1Q"
1T"
1D"
1G"
1>"
1A"
1v!
0|!
0f!
1U!
1_"
1.#
1E
1@
0;#
06"
1-"
01#
0(#
0{"
0s"
0b"
0\"
0T"
0G"
0A"
0""
0v!
0h!
0U!
1:#
1;#
0\!
0!"
1g!
1V!
1h
1[!
0I"
17"
1."
0#"
0V!
0h
0;#
1""
1h!
1\!
0d"
1J"
18"
1/"
1#"
0e"
1H
1K"
19"
10"
0f"
1N
1I
1L"
1:"
0g"
1S
1O
1J
1M"
0h"
1=!
1T
1P
1L
03#
1i"
1>!
1D!
1R
04#
0V
1j"
1?!
1E!
05#
0W
1*#
1k"
1@!
09#
06#
1[
1+#
1l"
0:#
17#
0k"
0L"
09"
0/"
0[!
0D!
0?!
1,!
0'!
0z
0y
0P
0J
1|
1,#
1;#
1:#
0+#
0l"
0M"
0:"
00"
0E!
0@!
0R
0L
0|
0;#
0,#
#100000
0%
0i
07
#120000
0#
0f
0g
17
#150000
1#
1f
1g
07
1f#
0g#
1'$
1&!
1j
0.#
0*#
0%#
0~"
0x"
0p"
0_"
0Y"
0Q"
0D"
0>"
1="
1($
0R!
1+!
0x
0[
1&"
1'!
1C"
1j!
19#
18#
07#
0j"
0K"
08"
0."
1'"
1k!
0>!
0,!
1z
0T
0O
0I
0E
1k"
1L"
19"
1/"
1[!
1D!
1?!
1y
1P
1J
1l"
1M"
1:"
10"
1E!
1@!
1R
1L
1P"
0k"
0L"
09"
0/"
1("
1l!
0?!
0D!
0P
0J
0[!
1V"
0l"
0M"
0:"
00"
1)"
1m!
0@!
0E!
0R
0L
0\!
1X"
1^"
1o"
1u"
1v"
1w"
1}"
1=#
1$#
1!"
0t!
0g!
0""
1u!
0h!
0#"
1v!
#180000
0#
0f
0g
17
