QUEUERAM/simulation/qsim/QUEUERAM.msim.vcd
$comment
	File created using the following command:
		vcd file QUEUERAM.msim.vcd -direction
$end
$date
	Tue Dec 03 10:45:14 2024
$end
$version
	ModelSim Version 10.1d
$end
$timescale
	1ps
$end
$scope module QUEUERAM_vlg_vec_tst $end
$var reg 1 ! CLK $end
$var reg 1 " EN $end
$var reg 8 # IN [7:0] $end
$var reg 1 $ POP $end
$var wire 1 % A [4] $end
$var wire 1 & A [3] $end
$var wire 1 ' A [2] $end
$var wire 1 ( A [1] $end
$var wire 1 ) A [0] $end
$var wire 1 * B [4] $end
$var wire 1 + B [3] $end
$var wire 1 , B [2] $end
$var wire 1 - B [1] $end
$var wire 1 . B [0] $end
$var wire 1 / EMPTY $end
$var wire 1 0 FULL $end
$var wire 1 1 O [7] $end
$var wire 1 2 O [6] $end
$var wire 1 3 O [5] $end
$var wire 1 4 O [4] $end
$var wire 1 5 O [3] $end
$var wire 1 6 O [2] $end
$var wire 1 7 O [1] $end
$var wire 1 8 O [0] $end
$var wire 1 9 sampler $end
$scope module i1 $end
$var wire 1 : gnd $end
$var wire 1 ; vcc $end
$var wire 1 < unknown $end
$var tri1 1 = devclrn $end
$var tri1 1 > devpor $end
$var tri1 1 ? devoe $end
$var wire 1 @ inst|inst5|inst7~combout $end
$var wire 1 A inst|inst6|inst7~combout $end
$var wire 1 B inst|inst|inst7~combout $end
$var wire 1 C inst|inst6|inst6~combout $end
$var wire 1 D inst|inst3|inst6~combout $end
$var wire 1 E inst|inst4|inst6~combout $end
$var wire 1 F inst|inst4|inst5~combout $end
$var wire 1 G inst|inst5|inst4~combout $end
$var wire 1 H inst|inst6|inst4~combout $end
$var wire 1 I inst|inst3|inst3~combout $end
$var wire 1 J inst|inst4|inst3~combout $end
$var wire 1 K inst|inst3|inst2~combout $end
$var wire 1 L inst|inst|inst2~combout $end
$var wire 1 M inst|inst1|inst1~combout $end
$var wire 1 N inst|inst2|inst1~combout $end
$var wire 1 O inst|inst|inst1~combout $end
$var wire 1 P inst|inst4|inst~combout $end
$var wire 1 Q CLK~combout $end
$var wire 1 R CLK~clkctrl_outclk $end
$var wire 1 S EN~combout $end
$var wire 1 T POP~combout $end
$var wire 1 U inst12|inst5~0_combout $end
$var wire 1 V inst12|inst5~regout $end
$var wire 1 W inst12|inst7~0_combout $end
$var wire 1 X inst12|inst7~regout $end
$var wire 1 Y inst|inst1|inst17~0_combout $end
$var wire 1 Z inst13|inst5~0_combout $end
$var wire 1 [ inst13|inst5~feeder_combout $end
$var wire 1 \ inst13|inst5~regout $end
$var wire 1 ] inst13|inst7~0_combout $end
$var wire 1 ^ inst13|inst7~feeder_combout $end
$var wire 1 _ inst13|inst7~regout $end
$var wire 1 ` inst5~0_combout $end
$var wire 1 a inst13|inst9~0_combout $end
$var wire 1 b inst13|inst9~regout $end
$var wire 1 c inst|inst1|1~0_combout $end
$var wire 1 d inst|inst1|1~0clkctrl_outclk $end
$var wire 1 e inst|inst1|inst7~combout $end
$var wire 1 f inst|inst3|inst17~0_combout $end
$var wire 1 g inst12|inst9~0_combout $end
$var wire 1 h inst12|inst9~regout $end
$var wire 1 i inst|inst1|inst15~1_combout $end
$var wire 1 j inst|inst2|1~0_combout $end
$var wire 1 k inst|inst2|1~0clkctrl_outclk $end
$var wire 1 l inst|inst2|inst7~combout $end
$var wire 1 m inst|inst2|inst17~0_combout $end
$var wire 1 n inst|inst1|inst15~2_combout $end
$var wire 1 o inst13|inst8|inst7~combout $end
$var wire 1 p inst13|inst8|inst7~clkctrl_outclk $end
$var wire 1 q inst|inst7|inst7~combout $end
$var wire 1 r inst|inst3|1~0_combout $end
$var wire 1 s inst|inst3|1~0clkctrl_outclk $end
$var wire 1 t inst|inst3|inst7~combout $end
$var wire 1 u inst|inst1|inst15~3_combout $end
$var wire 1 v inst|inst4|inst17~0_combout $end
$var wire 1 w inst|inst4|1~0_combout $end
$var wire 1 x inst|inst4|1~0clkctrl_outclk $end
$var wire 1 y inst|inst4|inst7~combout $end
$var wire 1 z inst|inst1|inst15~4_combout $end
$var wire 1 { inst|inst1|inst15~5_combout $end
$var wire 1 | inst7~0_combout $end
$var wire 1 } inst|inst|1~0_combout $end
$var wire 1 ~ inst|inst|1~0clkctrl_outclk $end
$var wire 1 !! inst|inst|inst6~combout $end
$var wire 1 "! inst|inst1|inst14~4_combout $end
$var wire 1 #! inst|inst2|inst6~combout $end
$var wire 1 $! inst|inst1|inst14~2_combout $end
$var wire 1 %! inst|inst5|1~0_combout $end
$var wire 1 &! inst|inst5|1~0clkctrl_outclk $end
$var wire 1 '! inst|inst5|inst6~combout $end
$var wire 1 (! inst|inst1|inst6~combout $end
$var wire 1 )! inst|inst1|inst14~1_combout $end
$var wire 1 *! inst|inst7|inst6~combout $end
$var wire 1 +! inst|inst1|inst14~3_combout $end
$var wire 1 ,! inst|inst1|inst14~5_combout $end
$var wire 1 -! inst|inst2|inst5~combout $end
$var wire 1 .! inst|inst6|1~0_combout $end
$var wire 1 /! inst|inst6|1~0clkctrl_outclk $end
$var wire 1 0! inst|inst6|inst5~combout $end
$var wire 1 1! inst|inst1|inst13~2_combout $end
$var wire 1 2! inst|inst|inst5~combout $end
$var wire 1 3! inst|inst1|inst13~4_combout $end
$var wire 1 4! inst|inst3|inst5~combout $end
$var wire 1 5! inst|inst7|inst5~combout $end
$var wire 1 6! inst|inst1|inst13~3_combout $end
$var wire 1 7! inst|inst5|inst5~combout $end
$var wire 1 8! inst|inst1|inst5~combout $end
$var wire 1 9! inst|inst1|inst13~1_combout $end
$var wire 1 :! inst|inst1|inst13~5_combout $end
$var wire 1 ;! inst|inst2|inst4~combout $end
$var wire 1 <! inst|inst1|inst12~2_combout $end
$var wire 1 =! inst|inst4|inst4~combout $end
$var wire 1 >! inst|inst|inst4~combout $end
$var wire 1 ?! inst|inst1|inst12~4_combout $end
$var wire 1 @! inst|inst1|inst4~combout $end
$var wire 1 A! inst|inst1|inst12~1_combout $end
$var wire 1 B! inst|inst7|inst4~combout $end
$var wire 1 C! inst|inst3|inst4~combout $end
$var wire 1 D! inst|inst1|inst12~3_combout $end
$var wire 1 E! inst|inst1|inst12~5_combout $end
$var wire 1 F! inst|inst6|inst3~combout $end
$var wire 1 G! inst|inst2|inst3~combout $end
$var wire 1 H! inst|inst1|inst11~2_combout $end
$var wire 1 I! inst|inst|inst3~combout $end
$var wire 1 J! inst|inst1|inst11~4_combout $end
$var wire 1 K! inst|inst7|inst3~combout $end
$var wire 1 L! inst|inst1|inst11~3_combout $end
$var wire 1 M! inst|inst5|inst3~combout $end
$var wire 1 N! inst|inst1|inst3~combout $end
$var wire 1 O! inst|inst1|inst11~1_combout $end
$var wire 1 P! inst|inst1|inst11~5_combout $end
$var wire 1 Q! inst|inst5|inst2~combout $end
$var wire 1 R! inst|inst1|inst2~combout $end
$var wire 1 S! inst|inst1|inst10~1_combout $end
$var wire 1 T! inst|inst4|inst2~combout $end
$var wire 1 U! inst|inst1|inst10~4_combout $end
$var wire 1 V! inst|inst2|inst2~combout $end
$var wire 1 W! inst|inst6|inst2~combout $end
$var wire 1 X! inst|inst1|inst10~2_combout $end
$var wire 1 Y! inst|inst7|inst2~combout $end
$var wire 1 Z! inst|inst1|inst10~3_combout $end
$var wire 1 [! inst|inst1|inst10~5_combout $end
$var wire 1 \! inst|inst7|inst1~combout $end
$var wire 1 ]! inst|inst3|inst1~combout $end
$var wire 1 ^! inst|inst1|inst9~3_combout $end
$var wire 1 _! inst|inst4|inst1~combout $end
$var wire 1 `! inst|inst1|inst9~4_combout $end
$var wire 1 a! inst|inst6|inst1~combout $end
$var wire 1 b! inst|inst1|inst9~2_combout $end
$var wire 1 c! inst|inst5|inst1~combout $end
$var wire 1 d! inst|inst1|inst9~1_combout $end
$var wire 1 e! inst|inst1|inst9~5_combout $end
$var wire 1 f! inst|inst7|inst~combout $end
$var wire 1 g! inst|inst3|inst~combout $end
$var wire 1 h! inst|inst1|inst8~3_combout $end
$var wire 1 i! inst|inst2|inst~combout $end
$var wire 1 j! inst|inst6|inst~combout $end
$var wire 1 k! inst|inst1|inst8~2_combout $end
$var wire 1 l! inst|inst5|inst~combout $end
$var wire 1 m! inst|inst1|inst~combout $end
$var wire 1 n! inst|inst1|inst8~1_combout $end
$var wire 1 o! inst|inst|inst~combout $end
$var wire 1 p! inst|inst1|inst8~4_combout $end
$var wire 1 q! inst|inst1|inst8~5_combout $end
$var wire 1 r! inst9~0_combout $end
$var wire 1 s! inst9~1_combout $end
$var wire 1 t! inst6~0_combout $end
$var wire 1 u! inst9~2_combout $end
$var wire 1 v! IN~combout [7] $end
$var wire 1 w! IN~combout [6] $end
$var wire 1 x! IN~combout [5] $end
$var wire 1 y! IN~combout [4] $end
$var wire 1 z! IN~combout [3] $end
$var wire 1 {! IN~combout [2] $end
$var wire 1 |! IN~combout [1] $end
$var wire 1 }! IN~combout [0] $end
$upscope $end
$upscope $end
$enddefinitions $end
#0
$dumpvars
0!
0"
b0 #
0$
0)
0(
0'
0&
0%
0.
0-
0,
0+
0*
1/
00
z8
z7
z6
z5
z4
z3
z2
z1
x9
0:
1;
x<
1=
1>
1?
x@
xA
xB
xC
xD
xE
xF
xG
xH
xI
xJ
xK
xL
xM
xN
xO
xP
0Q
0R
0S
0T
0U
0V
0W
0X
0Y
0Z
0[
0\
0]
0^
0_
0`
0a
0b
0c
0d
xe
0f
0g
0h
1i
0j
0k
xl
0m
1n
0o
0p
xq
0r
0s
xt
1u
0v
0w
0x
xy
1z
1{
0|
0}
0~
x!!
1"!
x#!
1$!
0%!
0&!
x'!
x(!
1)!
x*!
1+!
1,!
x-!
0.!
0/!
x0!
11!
x2!
13!
x4!
x5!
16!
x7!
x8!
19!
1:!
x;!
1<!
x=!
x>!
1?!
x@!
1A!
xB!
xC!
1D!
1E!
xF!
xG!
1H!
xI!
1J!
xK!
1L!
xM!
xN!
1O!
1P!
xQ!
xR!
1S!
xT!
1U!
xV!
xW!
1X!
xY!
1Z!
1[!
x\!
x]!
1^!
x_!
1`!
xa!
1b!
xc!
1d!
1e!
xf!
xg!
1h!
xi!
xj!
1k!
xl!
xm!
1n!
xo!
1p!
1q!
1r!
1s!
0t!
1u!
0}!
0|!
0{!
0z!
0y!
0x!
0w!
0v!
$end
#50000
1"
b1000 #
b1100 #
b1101 #
1$
1S
1}!
1{!
1z!
1T
09
1`
1Z
1}
1[
1~
1o!
1I!
0>!
02!
0!!
0O
1L
0B
#60000
1!
1Q
1R
19
1\
0r!
0}
1c
1]
0Z
1d
0~
1.
0s!
1^
0[
1m!
1R!
1N!
0@!
08!
0(!
0e
0M
0u!
0/
#70000
0"
b101 #
b1 #
b0 #
0$
0S
0}!
0{!
0z!
0T
09
0`
0]
1Z
0m!
0R!
0N!
0c
0^
1[
0d
#80000
0!
0Q
0R
19
#90000
b10000000 #
1"
b10000100 #
1$
1{!
1v!
1S
1T
09
1`
1]
0Z
1c
1^
0[
1d
1R!
1e
#100000
1!
1Q
1R
19
1_
0\
1j
0c
1Z
0d
1k
1-
0.
1[
0i!
1V!
0G!
0;!
0-!
0#!
1l
0N
#110000
b100 #
0"
b0 #
0$
0{!
0v!
0S
0T
09
0V!
0l
0`
0Z
0j
0[
0k
#120000
0!
0Q
0R
19
#130000
b1000000 #
b1100000 #
b1110000 #
b1110010 #
b1111010 #
b1111011 #
1"
1$
1}!
1|!
1z!
1y!
1x!
1w!
1S
1T
09
1`
1Z
1j
1[
1k
1i!
1G!
1;!
1-!
1#!
1N
#140000
1!
1Q
1R
19
1\
1r
0j
1a
0]
0Z
0k
1s
1.
0^
0[
1g!
1]!
1C!
14!
0t
0K
1I
1D
#150000
b111011 #
b11011 #
b1011 #
b1001 #
b1 #
b0 #
0"
0$
0}!
0|!
0z!
0y!
0x!
0w!
0S
0T
09
0g!
0]!
0I
0C!
04!
0D
0`
1]
1Z
0r
0a
1^
1[
0s
#160000
0!
0Q
0R
19
#170000
b1000000 #
b1100000 #
b1110000 #
b1110001 #
1"
1$
1}!
1y!
1x!
1w!
1S
1T
09
1`
0]
0Z
1r
1a
0^
0[
1s
1g!
1C!
14!
1D
#180000
1!
1Q
1R
19
1b
0_
0\
1w
0r
1r!
1Z
0s
1x
1,
0-
0.
1[
0_!
0T!
1=!
0y
1P
0J
1F
1E
#190000
b110001 #
b10001 #
b1 #
b0 #
0"
0$
0}!
0y!
0x!
0w!
0S
0T
09
0P
0=!
0F
0E
0`
0Z
0w
0[
0x
#200000
0!
0Q
0R
19
#210000
b10000000 #
b10000010 #
b10001010 #
b11001010 #
b11101010 #
1"
1$
1|!
1z!
1x!
1w!
1v!
1S
1T
09
1`
1Z
1w
1[
1x
1_!
1y
1J
1F
1E
#220000
1!
1Q
1R
19
1\
0r!
1%!
0w
1]
0Z
0x
1&!
1.
1^
0[
0l!
1c!
0Q!
1M!
17!
1'!
0G
1@
#230000
b1101010 #
b1101000 #
b1100000 #
b100000 #
b0 #
0"
0$
0|!
0z!
0x!
0w!
0v!
0S
0T
09
0c!
0M!
07!
0'!
0@
0`
0]
1Z
0%!
0^
1[
0&!
#240000
0!
0Q
0R
19
#250000
b1 #
b10000001 #
b10000011 #
b10001011 #
b11001011 #
b11101011 #
1"
1$
1}!
1|!
1z!
1x!
1w!
1v!
1S
1T
09
1`
1]
0Z
1%!
1^
0[
1&!
1l!
1c!
1M!
17!
1'!
1@
#260000
1!
1Q
1R
19
1_
0\
1.!
0%!
1Z
0&!
1/!
1-
0.
1[
1j!
1a!
0W!
1F!
10!
0H
1C
1A
#270000
b11101010 #
b1101010 #
b1101000 #
b1100000 #
b100000 #
b0 #
0"
0$
0}!
0|!
0z!
0x!
0w!
0v!
0S
0T
09
0j!
0a!
0F!
00!
0C
0A
0`
0Z
0.!
0[
0/!
#280000
0!
0Q
0R
19
#290000
b100 #
b10100 #
b10101 #
b10010101 #
b10010111 #
b10011111 #
b11011111 #
b11111111 #
1"
1$
1}!
1|!
1{!
1z!
1y!
1x!
1w!
1v!
1S
1T
09
1`
1Z
1.!
1[
1/!
1j!
1a!
1W!
1F!
10!
1H
1C
1A
#300000
1!
1Q
1R
19
1\
0.!
1o
0a
0]
0Z
1p
0/!
1.
1t!
0^
0[
1f!
1\!
1Y!
1K!
1B!
15!
1*!
1q
10
#310000
b11111011 #
b11101011 #
b11101010 #
b1101010 #
b1101000 #
b1100000 #
b100000 #
b0 #
0"
0$
0}!
0|!
0{!
0z!
0y!
0x!
0w!
0v!
0S
0T
09
0f!
0\!
0Y!
0K!
0B!
05!
0*!
0q
0`
1]
1Z
0o
1a
1^
1[
0p
0t!
00
#320000
0!
0Q
0R
19
#340000
1!
1Q
1R
09
#360000
0!
0Q
0R
19
#370000
1"
1S
09
1|
1v
1U
0`!
0?!
03!
0"!
0z
18
17
16
15
14
13
12
11
0e!
0E!
0:!
0,!
0{
07
04
03
02
01
#380000
1!
1Q
1R
19
1V
0v
1Y
1W
0U
1)
1`!
1?!
13!
1"!
1z
0n!
0d!
0O!
0A!
09!
0)!
1{
0q!
0P!
11
08
05
#390000
0"
0S
09
0|
0Y
0W
1U
1n!
1d!
1O!
1A!
19!
1)!
z8
z7
z6
z5
z4
z3
z2
z1
1q!
1e!
1P!
1E!
1:!
1,!
#400000
0!
0Q
0R
19
#410000
1"
1S
09
1|
1Y
1W
0U
0n!
0d!
0O!
0A!
09!
0)!
18
17
16
15
14
13
12
11
0q!
0e!
0P!
0E!
0:!
0,!
08
07
05
04
03
02
#420000
1!
1Q
1R
19
1X
0V
1m
0Y
1U
1(
0)
0X!
0n
1n!
1d!
1O!
1A!
19!
1)!
0[!
0{
1q!
1e!
1P!
1E!
1:!
1,!
06
01
18
17
15
14
13
12
#430000
0"
0S
09
0|
0m
0U
1X!
1n
z8
z7
z6
z5
z4
z3
z2
z1
1[!
1{
#440000
0!
0Q
0R
19
#450000
1"
1S
09
1|
1m
1U
0X!
0n
18
17
16
15
14
13
12
11
0[!
0{
06
01
#460000
1!
1Q
1R
19
1V
1r!
0m
1f
0W
0U
1)
1X!
1n
0^!
0Z!
0L!
0u
1g
0e!
0P!
07
05
#470000
0"
0S
09
0|
0f
1W
1U
1^!
1Z!
1L!
1u
0g
z8
z7
z6
z5
z4
z3
z2
z1
1e!
1[!
1P!
1{
#480000
0!
0Q
0R
19
#490000
1"
1S
09
1|
1f
0W
0U
0^!
0Z!
0L!
0u
1g
18
17
16
15
14
13
12
11
0e!
0[!
0P!
0{
07
06
05
01
#500000
1!
1Q
1R
19
1h
0X
0V
1t!
1s!
0h!
0D!
06!
0+!
0g
0r!
1v
0f
1U
1'
0(
0)
1u!
0t!
0q!
0E!
0:!
0,!
0s!
0p!
0U!
0?!
1h!
1^!
1Z!
1L!
1D!
16!
1+!
1u
1g
10
0u!
1e!
1P!
1:!
1,!
1{
1/
00
08
04
03
02
0/
17
15
13
12
11
#510000
0"
0S
09
0|
0v
0U
1p!
1U!
1?!
z8
z7
z6
z5
z4
z3
z2
z1
1q!
1[!
1E!
#520000
0!
0Q
0R
19
#530000
1"
1S
09
1|
1v
1U
0p!
0U!
0?!
18
17
16
15
14
13
12
11
0q!
0[!
0E!
08
06
04
#540000
1!
1Q
1R
19
1V
0v
1Y
1W
0U
1)
1p!
1U!
1?!
0S!
0A!
1q!
18
#550000
0"
0S
09
0|
0Y
0W
1U
1S!
1A!
z8
z7
z6
z5
z4
z3
z2
z1
1[!
1E!
#560000
0!
0Q
0R
19
#570000
1"
1S
09
1|
1Y
1W
0U
0S!
0A!
18
17
16
15
14
13
12
11
0[!
0E!
06
04
#580000
1!
1Q
1R
19
1X
0V
1m
0Y
1U
1(
0)
1S!
1A!
1[!
1E!
16
14
#590000
0"
0S
09
0|
0m
0U
z8
z7
z6
z5
z4
z3
z2
z1
#600000
0!
0Q
0R
19
#610000
1"
1S
09
1|
1m
1U
18
17
16
15
14
13
12
11
#620000
1!
1Q
1R
19
1V
1r!
0m
1f
0W
0U
1)
1s!
1t!
0h!
0^!
0Z!
0L!
0D!
06!
0+!
0u
0g
0t!
0q!
0e!
0[!
0P!
0E!
0:!
0,!
0{
10
00
08
07
06
05
04
03
02
01
#630000
0"
0S
09
0|
0f
1W
1U
1u!
1h!
1^!
1Z!
1L!
1D!
16!
1+!
1u
1g
z8
z7
z6
z5
z4
z3
z2
z1
1q!
1e!
1[!
1P!
1E!
1:!
1,!
1{
1/
#640000
0!
0Q
0R
19
#660000
1!
1Q
1R
09
#680000
0!
0Q
0R
19
#700000
1!
1Q
1R
09
#720000
0!
0Q
0R
19
#740000
1!
1Q
1R
09
#760000
0!
0Q
0R
19
#780000
1!
1Q
1R
09
#800000
0!
0Q
0R
19
#820000
1!
1Q
1R
09
#840000
0!
0Q
0R
19
#860000
1!
1Q
1R
09
#880000
0!
0Q
0R
19
#900000
1!
1Q
1R
09
#920000
0!
0Q
0R
19
#940000
1!
1Q
1R
09
#960000
0!
0Q
0R
19
#980000
1!
1Q
1R
09
